{
  "name": "@cancha/shared-components",
  "version": "0.1.2",
  "description": "Shared components for DLA",
  "main": "./dist",
  "scripts": {
    "test": "jest --coverage --verbose --color --updateSnapshot",
    "lint": "npx eslint src/",
    "transpile": "babel src --out-dir dist --ignore ./**/*.spec.js,./**/*.stories.js"
  },
  "jest": {
    "coverageThreshold": {
      "global": {
        "statements": 40,
        "branches": 40,
        "functions": 40,
        "lines": 40
      }
    },
    "setupFiles": [
      "./config/setupTests.js",
      "react-app-polyfill/jsdom"
    ],
    "collectCoverageFrom": [
      "src/**/*.{js,jsx,ts,tsx}",
      "!src/**/*.stories.ts",
      "!src/**/*.d.ts"
    ],
    "resolver": "jest-pnp-resolver",
    "testMatch": [
      "<rootDir>/src/**/*.spec.js",
      "!<rootDir>/src/**/*.stories.{js,jsx}"
    ],
    "testEnvironment": "jsdom",
    "testURL": "http://localhost",
    "transform": {
      "^.+\\.(js|jsx|ts|tsx)$": "../../node_modules/babel-jest",
      "^.+\\.css$": "./config/cssTransform.js",
      "^(?!.*\\.(js|jsx|ts|tsx|css|json)$)": "./config/fileTransform.js"
    },
    "transformIgnorePatterns": [
      "[/\\\\]node_modules[/\\\\].+\\.(js|jsx|ts|tsx)$",
      "^.+\\.module\\.(css|sass|scss)$"
    ],
    "moduleNameMapper": {
      "^react-native$": "react-native-web",
      "^.+\\.module\\.(css|sass|scss)$": "identity-obj-proxy"
    },
    "moduleFileExtensions": [
      "web.js",
      "js",
      "web.ts",
      "ts",
      "web.tsx",
      "tsx",
      "json",
      "web.jsx",
      "jsx",
      "node"
    ],
    "snapshotSerializers": [
      "enzyme-to-json/serializer"
    ]
  },
  "babel": {
    "presets": [
      "@babel/preset-env",
      "@babel/preset-react"
    ],
    "plugins": [
      "babel-plugin-styled-components"
    ],
    "env": {
      "test": {
        "plugins": [
          "transform-es2015-modules-commonjs",
          "dynamic-import-node"
        ]
      }
    }
  },
  "dependencies": {
    "@storybook/addon-backgrounds": "^5.0.2",
    "@storybook/addon-knobs": "^5.0.1",
    "@use-hook/use-cookie": "^0.1.3",
    "jsonwebtoken": "^8.5.1",
    "lodash": "^4.17.11",
    "react": "^16.8.4",
    "react-content-loader": "^4.2.1",
    "react-dfp": "^0.11.0",
    "react-lazy-load-image-component": "^1.3.2",
    "react-lazyload": "^2.5.0",
    "react-render-html": "^0.6.0",
    "react-slick": "^0.23.2",
    "react-sticky-el": "^1.0.20",
    "react-svg": "^8.0.2",
    "react-test-renderer": "^16.8.4",
    "slick-carousel": "^1.8.1",
    "styled-components": "^4.1.3",
    "ua-parser-js": "^0.7.19"
  },
  "devDependencies": {
    "babel-plugin-styled-components": "^1.10.0",
    "enzyme": "^3.9.0",
    "enzyme-adapter-react-16": "^1.10.0",
    "enzyme-to-json": "^3.3.5",
    "jest-styled-components": "^6.3.1",
    "prop-types": "^15.7.2"
  },
  "eslintConfig": {
    "env": {
      "browser": true,
      "jest": true
    },
    "extends": "airbnb",
    "plugins": [
      "react"
    ],
    "rules": {
      "consistent-return": 0,
      "no-param-reassign": 0,
      "linebreak-style": 0,
      "no-named-as-default": 0,
      "no-named-as-default-member": 0,
      "import/no-extraneous-dependencies": 0,
      "import/no-named-as-default": 0,
      "react/jsx-filename-extension": [
        1,
        {
          "extensions": [
            ".js",
            ".jsx"
          ]
        }
      ],
      "react/prefer-stateless-function": "off"
    }
  },
  "eslintIgnore": [
    "*/serviceWorker.js"
  ]
}
