<svg width="20" height="20" xmlns="http://www.w3.org/2000/svg" xmlns:xlink="http://www.w3.org/1999/xlink">
  <defs>
    <path d="M15.925 3.908C14.023 2.007 11.328.91 8.365 1.213 4.083 1.645.56 5.122.082 9.403c-.642 5.659 3.733 10.43 9.251 10.43a9.31 9.31 0 0 0 8.412-5.32 1.169 1.169 0 0 0-1.05-1.68c-.432 0-.84.234-1.027.619-1.318 2.835-4.48 4.631-7.933 3.861-2.59-.571-4.678-2.683-5.227-5.273A7.003 7.003 0 0 1 9.333 3.5c1.937 0 3.664.805 4.924 2.077l-1.762 1.761c-.735.735-.222 1.995.817 1.995H17.5a1.17 1.17 0 0 0 1.167-1.166V3.978c0-1.038-1.26-1.563-1.995-.828l-.747.758z" id="a"/>
  </defs>
  <g fill="none" fill-rule="evenodd">
    <path d="M24-4H-4v28h28z"/>
    <g transform="matrix(-1 0 0 1 19.333 -.5)">
      <mask id="b" fill="#fff">
        <use xlink:href="#a"/>
      </mask>
      <use fill="#000" fill-rule="nonzero" xlink:href="#a"/>
      <g mask="url(#b)" fill="#FFF">
        <path d="M-4.667-3.5h28v28h-28z"/>
      </g>
    </g>
  </g>
</svg>