<svg xmlns="http://www.w3.org/2000/svg" width="16" height="16" viewBox="0 0 16 16">
    <path fill="#E83338" fill-rule="nonzero" d="M4.987 8.987l-2.931 3.031L0 9.589V16h6.387l-2.43-2.081 3.03-2.932-2-2zM9.613 0l2.43 2.081-3.03 2.932 2 2 2.931-3.031L16 6.411V0H9.613z"/>
</svg>
